<?xml version="1.0" encoding="UTF-8"?>
<svg width="56px" height="56px" viewBox="0 0 56 56" version="1.1" xmlns="http://www.w3.org/2000/svg" xmlns:xlink="http://www.w3.org/1999/xlink">
    <!-- Generator: sketchtool 51.2 (57519) - http://www.bohemiancoding.com/sketch -->
    <title>0D8E2E4C-C555-4D49-95C8-CFDFB016B6DF</title>
    <desc>Created with sketchtool.</desc>
    <defs></defs>
    <g id="Symbols" stroke="none" stroke-width="1" fill="none" fill-rule="evenodd">
        <g id="from-mouth-to-mouth" fill="#323656" fill-rule="nonzero">
            <g>
                <path d="M46.1539355,47.552129 C45.4593548,44.5443871 43.0676129,42.1535484 40.0607742,41.4589677 L33.4193548,39.9261935 L33.4193548,38.8387097 L33.395871,38.8387097 C35.400129,37.3384516 36.7630968,35.0325161 36.9916129,32.4005161 C38.5668387,32.0103226 39.7419355,30.5967742 39.7419355,28.9032258 L39.7419355,23.483871 C39.7419355,17.9615484 35.952,13.2656774 30.6392258,12.0508387 C30.3664516,10.8423226 29.2889032,9.93548387 28,9.93548387 C26.7110968,9.93548387 25.6335484,10.8423226 25.3607742,12.0508387 C20.048,13.2656774 16.2580645,17.9615484 16.2580645,23.483871 L16.2580645,28.9032258 C16.2580645,30.5967742 17.4331613,32.0103226 19.0074839,32.4005161 C19.236,35.0325161 20.599871,37.3384516 22.6032258,38.8387097 L22.5806452,38.8387097 L22.5806452,39.9261935 L15.9392258,41.4589677 C12.9314839,42.1535484 10.5397419,44.5443871 9.84516129,47.552129 L7.89690323,56 L48.1030968,56 L46.1539355,47.552129 Z M37.0322581,30.4585806 L37.0322581,27.347871 C37.5696774,27.6612903 37.9354839,28.2375484 37.9354839,28.9032258 C37.9354839,29.5689032 37.5696774,30.1451613 37.0322581,30.4585806 Z M28,11.7419355 C28.4976774,11.7419355 28.9032258,12.1465806 28.9032258,12.6451613 C28.9032258,13.1437419 28.4976774,13.5483871 28,13.5483871 C27.5023226,13.5483871 27.0967742,13.1437419 27.0967742,12.6451613 C27.0967742,12.1465806 27.5023226,11.7419355 28,11.7419355 Z M18.9677419,30.4585806 C18.4303226,30.1451613 18.0645161,29.5689032 18.0645161,28.9032258 C18.0645161,28.2375484 18.4303226,27.6612903 18.9677419,27.347871 L18.9677419,30.4585806 Z M19.115871,25.3725161 C18.7374194,25.4529032 18.3887742,25.6037419 18.0645161,25.7925161 L18.0645161,23.483871 C18.0645161,18.8729032 21.1842581,14.9393548 25.5847742,13.8482581 C26.0300645,14.7370323 26.9396129,15.3548387 28,15.3548387 C29.0603871,15.3548387 29.9699355,14.7370323 30.4152258,13.8482581 C34.8157419,14.9393548 37.9354839,18.8729032 37.9354839,23.483871 L37.9354839,25.7925161 C37.6112258,25.6037419 37.2616774,25.4529032 36.884129,25.3725161 C36.4451613,23.7692903 34.9900645,22.5806452 33.2495484,22.5806452 L22.7504516,22.5806452 C21.0099355,22.5806452 19.5548387,23.7692903 19.115871,25.3725161 Z M20.7741935,31.6129032 L20.7741935,26.3633548 C20.7741935,25.2731613 21.6611613,24.3870968 22.7504516,24.3870968 L33.2486452,24.3870968 C34.3388387,24.3870968 35.2258065,25.2731613 35.2258065,26.3633548 L35.2258065,31.6129032 C35.2258065,35.5970323 31.984129,38.8387097 28,38.8387097 C24.015871,38.8387097 20.7741935,35.5970323 20.7741935,31.6129032 Z M31.5975484,39.8927742 C31.5162581,41.8139355 29.940129,43.3548387 28,43.3548387 C26.059871,43.3548387 24.4837419,41.8139355 24.4024516,39.8927742 C25.5061935,40.3741935 26.7210323,40.6451613 28,40.6451613 C29.2789677,40.6451613 30.4938065,40.3741935 31.5975484,39.8927742 Z M41.4101935,54.1935484 L40.6325161,49.5292903 L38.8504516,49.8255484 L39.5793548,54.1935484 L16.4206452,54.1935484 L17.1486452,49.8255484 L15.3665806,49.5292903 L14.5898065,54.1935484 L10.1676129,54.1935484 L11.6064516,47.9585806 C12.1465806,45.6192258 14.0063226,43.7594839 16.3456774,43.2202581 L22.9509677,41.6956129 C23.7367742,43.7197419 25.7012903,45.1612903 28,45.1612903 C30.2987097,45.1612903 32.2632258,43.7197419 33.0490323,41.6956129 L39.6543226,43.2202581 C41.9927742,43.7594839 43.8534194,45.6192258 44.3935484,47.9585806 L45.8323871,54.1935484 L41.4101935,54.1935484 Z" id="Shape"></path>
                <path d="M28,4.51612903 C25.8286452,4.51612903 23.7873548,5.36154839 22.251871,6.89703226 L23.5290323,8.17419355 C24.724,6.98103226 26.3109677,6.32258065 28,6.32258065 C29.6890323,6.32258065 31.276,6.98103226 32.4709677,8.17419355 L33.748129,6.89703226 C32.2126452,5.36154839 30.1713548,4.51612903 28,4.51612903 Z" id="Shape"></path>
                <path d="M28,0 C24.6219355,0 21.4470968,1.31509677 19.0589677,3.70412903 L20.336129,4.98129032 C22.3828387,2.93367742 25.1051613,1.80645161 28,1.80645161 C30.8948387,1.80645161 33.6171613,2.93367742 35.663871,4.98129032 L36.9410323,3.70412903 C34.5529032,1.31509677 31.3780645,0 28,0 Z" id="Shape"></path>
                <path d="M53.2903226,18.0645161 L44.2580645,18.0645161 C42.764129,18.0645161 41.5483871,19.2802581 41.5483871,20.7741935 L41.5483871,29.6420645 L38.1396129,38.732129 L48.0624516,34.3225806 L53.2903226,34.3225806 C54.7842581,34.3225806 56,33.1068387 56,31.6129032 L56,20.7741935 C56,19.2802581 54.7842581,18.0645161 53.2903226,18.0645161 Z M54.1935484,31.6129032 C54.1935484,32.1114839 53.788,32.516129 53.2903226,32.516129 L47.6794839,32.516129 L41.3442581,35.3314839 L43.3548387,29.9708387 L43.3548387,20.7741935 C43.3548387,20.2756129 43.7603871,19.8709677 44.2580645,19.8709677 L53.2903226,19.8709677 C53.788,19.8709677 54.1935484,20.2756129 54.1935484,20.7741935 L54.1935484,31.6129032 Z" id="Shape"></path>
                <rect id="Rectangle-path" x="45.1612903" y="21.6774194" width="7.22580645" height="1.80645161"></rect>
                <rect id="Rectangle-path" x="45.1612903" y="25.2903226" width="7.22580645" height="1.80645161"></rect>
                <rect id="Rectangle-path" x="45.1612903" y="28.9032258" width="3.61290323" height="1.80645161"></rect>
                <path d="M14.4516129,29.6420645 L14.4516129,20.7741935 C14.4516129,19.2802581 13.235871,18.0645161 11.7419355,18.0645161 L2.70967742,18.0645161 C1.21574194,18.0645161 0,19.2802581 0,20.7741935 L0,31.6129032 C0,33.1068387 1.21574194,34.3225806 2.70967742,34.3225806 L7.93754839,34.3225806 L17.8603871,38.7330323 L14.4516129,29.6420645 Z M2.70967742,32.516129 C2.212,32.516129 1.80645161,32.1114839 1.80645161,31.6129032 L1.80645161,20.7741935 C1.80645161,20.2756129 2.212,19.8709677 2.70967742,19.8709677 L11.7419355,19.8709677 C12.2396129,19.8709677 12.6451613,20.2756129 12.6451613,20.7741935 L12.6451613,29.9708387 L14.6557419,35.3323871 L8.32051613,32.516129 L2.70967742,32.516129 Z" id="Shape"></path>
                <rect id="Rectangle-path" x="3.61290323" y="21.6774194" width="7.22580645" height="1.80645161"></rect>
                <rect id="Rectangle-path" x="3.61290323" y="25.2903226" width="7.22580645" height="1.80645161"></rect>
                <rect id="Rectangle-path" x="3.61290323" y="28.9032258" width="3.61290323" height="1.80645161"></rect>
                <rect id="Rectangle-path" x="50.5806452" y="28.9032258" width="1.80645161" height="1.80645161"></rect>
                <rect id="Rectangle-path" x="9.03225806" y="28.9032258" width="1.80645161" height="1.80645161"></rect>
            </g>
        </g>
    </g>
</svg>