<svg xmlns="http://www.w3.org/2000/svg" width="26" height="24" viewBox="0 0 26 24">
    <g fill="#FFF" fill-rule="nonzero">
        <path d="M11.044 1.769a.38.38 0 0 0-.38.38V12.15a.38.38 0 1 0 .76 0V2.149a.38.38 0 0 0-.38-.38zM11.044 13.438a.38.38 0 0 0-.38.38v1.31a.38.38 0 1 0 .76 0v-1.31a.38.38 0 0 0-.38-.38zM11.044 16.296a.38.38 0 0 0-.38.38v4.286a.38.38 0 1 0 .76 0v-4.286a.38.38 0 0 0-.38-.38zM14.854 1.769a.38.38 0 0 0-.38.38V12.15a.38.38 0 1 0 .76 0V2.149a.38.38 0 0 0-.38-.38zM14.854 13.438a.38.38 0 0 0-.38.38v1.31a.38.38 0 1 0 .76 0v-1.31a.38.38 0 0 0-.38-.38zM14.854 16.296a.38.38 0 0 0-.38.38v4.286a.38.38 0 1 0 .76 0v-4.286a.38.38 0 0 0-.38-.38zM12.95 10.937a.38.38 0 0 0-.38.38v9.645a.38.38 0 1 0 .76 0v-9.645a.38.38 0 0 0-.38-.38zM12.95 7.96a.38.38 0 0 0-.38.38v1.31a.38.38 0 1 0 .76 0V8.34a.38.38 0 0 0-.38-.38zM12.95 1.769a.38.38 0 0 0-.38.38v4.644a.38.38 0 1 0 .76 0V2.149a.38.38 0 0 0-.38-.38z"/>
        <path d="M25.164 9.747h-1.9a.38.38 0 1 0 0 .76h1.9c.014 0 .025.01.025.025v1.929a.025.025 0 0 1-.025.024h-4.392v-1.978h.97a.38.38 0 1 0 0-.76h-.97V8.704a.983.983 0 0 0-.982-.982h-.864V1.934A1.894 1.894 0 0 0 17.034.042h-8.17a1.894 1.894 0 0 0-1.891 1.892v5.788h-.864a.983.983 0 0 0-.982.982v1.043H.72a.721.721 0 0 0-.72.72v2.058c0 .398.323.72.72.72h4.407v1.281c0 .542.44.982.982.982h.864v5.67c0 1.042.848 1.891 1.891 1.891h8.17a1.894 1.894 0 0 0 1.892-1.892v-5.67h.864c.541 0 .982-.44.982-.98v-1.281h4.392a.786.786 0 0 0 .785-.785v-1.93a.786.786 0 0 0-.785-.784zM5.127 12.485H.76v-1.978h4.367v1.978zm1.846 2.263h-.864a.221.221 0 0 1-.222-.222V8.704c0-.122.1-.221.222-.221h.864v6.265zm1.667 7.538a1.133 1.133 0 0 1-.907-1.109V1.934c0-.547.39-1.005.907-1.11v21.462zm7.859.023H9.4V.802h7.099V22.31zm1.667-1.132c0 .547-.39 1.005-.907 1.11V.824c.516.104.907.562.907 1.109v19.243zm1.845-6.65c0 .121-.099.22-.221.22h-.864V8.484h.864c.122 0 .221.099.221.22v5.823z"/>
        <path d="M23.169 3.846l.424-.127a.38.38 0 1 0-.218-.728l-1.191.357a.38.38 0 0 0-.26.457l.358 1.428a.38.38 0 1 0 .737-.184l-.118-.472a2.878 2.878 0 0 1 1.274 2.396V8.06a.38.38 0 1 0 .76 0V6.973a3.635 3.635 0 0 0-1.766-3.127zM4.177 18.8l-.357-1.43a.38.38 0 1 0-.738.185l.118.472a2.878 2.878 0 0 1-1.274-2.396v-1.085a.38.38 0 1 0-.76 0v1.085c0 1.298.678 2.474 1.766 3.127l-.424.127a.38.38 0 1 0 .219.728l1.19-.357a.38.38 0 0 0 .26-.456z"/>
    </g>
</svg>
